{
  "type": "Feature",
  "properties": {},
  "geometry": {
    "type": "LineString",
    "coordinates": [
      [
        -70.69049835205078,
        -33.45546974838108
      ],
      [
        -70.68981170654297,
        -33.45715256213916
      ],
      [
        -70.68959712982178,
        -33.45937239415912
      ],
      [
        -70.68925380706787,
        -33.462093401035204
      ],
      [
        -70.68912506103516,
        -33.46374028476004
      ],
      [
        -70.6891679763794,
        -33.46578094510023
      ],
      [
        -70.6891679763794,
        -33.4670697584566
      ],
      [
        -70.68912506103516,
        -33.468251153864685
      ],
      [
        -70.68899631500244,
        -33.469360934881905
      ],
      [
        -70.68903923034668,
        -33.47125826950989
      ],
      [
        -70.68882465362549,
        -33.47254700141571
      ],
      [
        -70.68865299224852,
        -33.4738715114583
      ],
      [
        -70.6874942779541,
        -33.47562556116561
      ],
      [
        -70.6871509552002,
        -33.476627859341484
      ],
      [
        -70.68680763244629,
        -33.47831026235616
      ],
      [
        -70.68556308746338,
        -33.4782744668875
      ],
      [
        -70.68534851074217,
        -33.47924093935019
      ],
      [
        -70.68564891815186,
        -33.48092329162111
      ],
      [
        -70.68689346313477,
        -33.48389417434814
      ],
      [
        -70.68758010864258,
        -33.48521851092102
      ],
      [
        -70.68830966949461,
        -33.48625649029594
      ],
      [
        -70.68942546844482,
        -33.48904823516542
      ],
      [
        -70.69084167480469,
        -33.492340946773304
      ],
      [
        -70.69127082824706,
        -33.49330726228523
      ],
      [
        -70.6929874420166,
        -33.49724399179302
      ],
      [
        -70.69388866424559,
        -33.498925994365074
      ],
      [
        -70.69521903991698,
        -33.501001612065124
      ],
      [
        -70.69637775421143,
        -33.503470816575
      ],
      [
        -70.69779396057129,
        -33.50669141224953
      ],
      [
        -70.69878101348877,
        -33.50858792918913
      ],
      [
        -70.70045471191406,
        -33.51263130766149
      ],
      [
        -70.70131301879883,
        -33.51427723062598
      ],
      [
        -70.7019567489624,
        -33.51567266252544
      ],
      [
        -70.70247173309326,
        -33.51699651300886
      ],
      [
        -70.70315837860107,
        -33.518320343233604
      ],
      [
        -70.70384502410889,
        -33.51985882317654
      ],
      [
        -70.70431709289551,
        -33.52086060935966
      ],
      [
        -70.70483207702637,
        -33.522577930108646
      ],
      [
        -70.70538997650146,
        -33.52368701497056
      ],
      [
        -70.70586204528809,
        -33.52501074280071
      ],
      [
        -70.70586204528809,
        -33.52626289912728
      ],
      [
        -70.7063341140747,
        -33.52991193701167
      ],
      [
        -70.70641994476318,
        -33.53116402236939
      ],
      [
        -70.70684909820557,
        -33.53241608959555
      ],
      [
        -70.707106590271,
        -33.53388277385682
      ],
      [
        -70.70749282836914,
        -33.53620795401008
      ],
      [
        -70.70813655853271,
        -33.537424177178
      ],
      [
        -70.70817947387695,
        -33.54007119197996
      ],
      [
        -70.70796489715576,
        -33.54139466898275
      ],
      [
        -70.70817947387695,
        -33.544542316650436
      ],
      [
        -70.70847988128662,
        -33.5467241415064
      ],
      [
        -70.70886611938477,
        -33.54965699959465
      ],
      [
        -70.70929527282715,
        -33.552410934242054
      ],
      [
        -70.71002483367919,
        -33.55459256041105
      ],
      [
        -70.71006774902344,
        -33.55759667676761
      ],
      [
        -70.7105827331543,
        -33.56042188133933
      ],
      [
        -70.7109260559082,
        -33.5621741769789
      ],
      [
        -70.71144104003906,
        -33.565034991409114
      ],
      [
        -70.71191310882568,
        -33.566858711140284
      ],
      [
        -70.71225643157959,
        -33.56907573030979
      ],
      [
        -70.7125997543335,
        -33.57150723426326
      ],
      [
        -70.71272850036621,
        -33.57361686603116
      ],
      [
        -70.71298599243163,
        -33.57547615976139
      ],
      [
        -70.71324348449707,
        -33.57747843129797
      ],
      [
        -70.71380138397217,
        -33.58073202347843
      ],
      [
        -70.71435928344727,
        -33.58244815455648
      ],
      [
        -70.71427345275879,
        -33.58402124473098
      ],
      [
        -70.71457386016846,
        -33.58666683171506
      ],
      [
        -70.71491718292236,
        -33.588811842693076
      ],
      [
        -70.71526050567626,
        -33.59113554440464
      ],
      [
        -70.71556091308594,
        -33.59288721662622
      ],
      [
        -70.71564674377441,
        -33.594781842454324
      ],
      [
        -70.71590423583984,
        -33.596461947524084
      ],
      [
        -70.71637630462646,
        -33.59821351158049
      ],
      [
        -70.71654796600342,
        -33.60039398039231
      ],
      [
        -70.71646213531494,
        -33.60235992959785
      ],
      [
        -70.71671962738037,
        -33.60461177997738
      ],
      [
        -70.71714878082275,
        -33.606684860079035
      ],
      [
        -70.71702003479004,
        -33.6094369756124
      ],
      [
        -70.71667671203613,
        -33.61161716061283
      ],
      [
        -70.71611881256104,
        -33.6147265093899
      ],
      [
        -70.71590423583984,
        -33.616835084388555
      ],
      [
        -70.71556091308594,
        -33.618943607799046
      ],
      [
        -70.71526050567626,
        -33.62123076130103
      ],
      [
        -70.71491718292236,
        -33.62351785409667
      ],
      [
        -70.71465969085693,
        -33.625376072291935
      ],
      [
        -70.7144021987915,
        -33.626876911576105
      ],
      [
        -70.71401596069336,
        -33.62887798994968
      ],
      [
        -70.71345806121826,
        -33.63159366482084
      ],
      [
        -70.71332931518555,
        -33.633630364787294
      ],
      [
        -70.7131576538086,
        -33.6358099377171
      ],
      [
        -70.71272850036621,
        -33.63777507913562
      ],
      [
        -70.71247100830078,
        -33.63963298978058
      ],
      [
        -70.71229934692383,
        -33.64152658822616
      ],
      [
        -70.71208477020264,
        -33.64281278228822
      ],
      [
        -70.71178436279297,
        -33.64434904445886
      ],
      [
        -70.71169853210449,
        -33.64599245736254
      ],
      [
        -70.71217060089111,
        -33.64742148656027
      ],
      [
        -70.71268558502197,
        -33.64920773969761
      ],
      [
        -70.71332931518555,
        -33.65074388774925
      ],
      [
        -70.71448802947998,
        -33.65356604178637
      ],
      [
        -70.71629047393799,
        -33.656959648771775
      ],
      [
        -70.71723461151122,
        -33.6591029105467
      ],
      [
        -70.71817874908447,
        -33.66128183862443
      ],
      [
        -70.71895122528076,
        -33.66303208514751
      ],
      [
        -70.71946620941162,
        -33.66485373248782
      ],
      [
        -70.72139739990234,
        -33.669139809362754
      ],
      [
        -70.72259902954102,
        -33.67085418031383
      ],
      [
        -70.72375774383545,
        -33.67442567670681
      ],
      [
        -70.72448730468749,
        -33.67624708275554
      ],
      [
        -70.7256031036377,
        -33.679032687970604
      ],
      [
        -70.72637557983398,
        -33.68038974499819
      ],
      [
        -70.7265043258667,
        -33.68228244665984
      ],
      [
        -70.72633266448975,
        -33.68471075757543
      ],
      [
        -70.72586059570312,
        -33.686746200641714
      ],
      [
        -70.72525978088379,
        -33.6894957577232
      ],
      [
        -70.72405815124512,
        -33.69088835697268
      ],
      [
        -70.7239294052124,
        -33.692602294302176
      ],
      [
        -70.7233715057373,
        -33.69503031367096
      ],
      [
        -70.72324275970459,
        -33.697136921948854
      ],
      [
        -70.72272777557373,
        -33.6988150305665
      ],
      [
        -70.72298526763916,
        -33.703099414532005
      ],
      [
        -70.72388648986816,
        -33.706062655101206
      ],
      [
        -70.72465896606445,
        -33.710346677590785
      ],
      [
        -70.72525978088379,
        -33.712809893757914
      ],
      [
        -70.72667598724365,
        -33.717379151128604
      ],
      [
        -70.72757720947266,
        -33.719806470202926
      ],
      [
        -70.72912216186523,
        -33.722126637515686
      ],
      [
        -70.73002338409424,
        -33.72444674211807
      ],
      [
        -70.73148250579834,
        -33.72773047528036
      ],
      [
        -70.7330274581909,
        -33.730871319872
      ],
      [
        -70.73534488677977,
        -33.736046324400654
      ],
      [
        -70.73654651641846,
        -33.738722928405565
      ],
      [
        -70.73744773864746,
        -33.74040022435128
      ],
      [
        -70.73813438415527,
        -33.74311237818922
      ],
      [
        -70.73873519897461,
        -33.746288344062535
      ],
      [
        -70.73959350585938,
        -33.74925009389289
      ],
      [
        -70.74023723602295,
        -33.7524258324699
      ],
      [
        -70.74088096618652,
        -33.7550662446528
      ],
      [
        -70.74126720428465,
        -33.758170409029375
      ],
      [
        -70.741868019104,
        -33.7614528513789
      ],
      [
        -70.74191093444823,
        -33.76337944378037
      ],
      [
        -70.74246883392334,
        -33.765948166282136
      ],
      [
        -70.74285507202148,
        -33.768338436118086
      ],
      [
        -70.74315547943115,
        -33.77047891968127
      ],
      [
        -70.74362754821777,
        -33.773332814588
      ],
      [
        -70.74414253234863,
        -33.77536615671307
      ],
      [
        -70.74440002441406,
        -33.77693572113715
      ],
      [
        -70.74461460113525,
        -33.77936135504473
      ],
      [
        -70.7450008392334,
        -33.781644241857414
      ],
      [
        -70.74542999267578,
        -33.78396273649499
      ],
      [
        -70.74573040008545,
        -33.78592449062527
      ],
      [
        -70.74633121490479,
        -33.78988353026957
      ],
      [
        -70.74697494506836,
        -33.792344462650576
      ],
      [
        -70.74744701385498,
        -33.79555426814426
      ],
      [
        -70.74774742126465,
        -33.798835278253975
      ],
      [
        -70.74856281280518,
        -33.80354259481925
      ],
      [
        -70.74946403503417,
        -33.80874887065971
      ],
      [
        -70.75053691864014,
        -33.815666308702774
      ],
      [
        -70.75092315673828,
        -33.81826911735135
      ],
      [
        -70.7513952255249,
        -33.82019443168696
      ],
      [
        -70.75238227844238,
        -33.825007527899594
      ],
      [
        -70.75276851654051,
        -33.82775265404426
      ],
      [
        -70.7530689239502,
        -33.83199494836176
      ],
      [
        -70.75315475463867,
        -33.8336347704208
      ],
      [
        -70.75255393981934,
        -33.8363796195534
      ],
      [
        -70.75126647949219,
        -33.84090664566177
      ],
      [
        -70.75079441070555,
        -33.8435086859909
      ],
      [
        -70.7502794265747,
        -33.84714428087046
      ],
      [
        -70.7493782043457,
        -33.848962020297556
      ],
      [
        -70.74839115142822,
        -33.85391605492598
      ],
      [
        -70.74766159057617,
        -33.85936872488411
      ],
      [
        -70.74714660644531,
        -33.86086547534525
      ],
      [
        -70.74306964874268,
        -33.86446469643321
      ],
      [
        -70.74195384979248,
        -33.86567628127984
      ],
      [
        -70.74135303497314,
        -33.86749362631163
      ],
      [
        -70.7404088973999,
        -33.87112820031405
      ],
      [
        -70.73877811431885,
        -33.87501203481551
      ],
      [
        -70.73830604553221,
        -33.87718547974775
      ],
      [
        -70.73731899261473,
        -33.88010707260322
      ],
      [
        -70.73697566986083,
        -33.88153220355148
      ],
      [
        -70.73757648468018,
        -33.88277917360546
      ],
      [
        -70.73727607727051,
        -33.884168633055204
      ],
      [
        -70.73633193969725,
        -33.88587870592943
      ],
      [
        -70.7360315322876,
        -33.88676935530893
      ],
      [
        -70.73538780212402,
        -33.89018936251444
      ],
      [
        -70.73504447937012,
        -33.89207743274474
      ],
      [
        -70.73482990264893,
        -33.894642291384905
      ],
      [
        -70.73440074920654,
        -33.89617404517217
      ],
      [
        -70.73410034179688,
        -33.89909498776245
      ],
      [
        -70.73452949523926,
        -33.90019922048363
      ],
      [
        -70.73461532592773,
        -33.90190897196699
      ],
      [
        -70.73482990264893,
        -33.90358307040577
      ],
      [
        -70.73397159576416,
        -33.90515028170476
      ],
      [
        -70.7319974899292,
        -33.906788699075705
      ],
      [
        -70.73058128356934,
        -33.90842708495607
      ],
      [
        -70.72916507720947,
        -33.90963804558404
      ],
      [
        -70.7283067703247,
        -33.91059967853271
      ],
      [
        -70.72731971740723,
        -33.911846223614454
      ],
      [
        -70.72659015655518,
        -33.91273660179618
      ],
      [
        -70.7256031036377,
        -33.91369819978431
      ],
      [
        -70.72487354278564,
        -33.914731015167575
      ],
      [
        -70.72453022003174,
        -33.91622679456532
      ],
      [
        -70.72478771209717,
        -33.91818551359699
      ],
      [
        -70.72495937347412,
        -33.91982368039221
      ],
      [
        -70.72410106658936,
        -33.921034479084405
      ],
      [
        -70.72234153747559,
        -33.92256575867039
      ],
      [
        -70.72122573852539,
        -33.923491635300394
      ],
      [
        -70.71955204010008,
        -33.924595551976985
      ],
      [
        -70.71826457977295,
        -33.92577067336483
      ],
      [
        -70.7175350189209,
        -33.927088214431194
      ],
      [
        -70.71667671203613,
        -33.92861938520097
      ],
      [
        -70.71590423583984,
        -33.930364174151286
      ],
      [
        -70.71487426757812,
        -33.93246499504882
      ],
      [
        -70.7138442993164,
        -33.934423340738476
      ],
      [
        -70.71281433105469,
        -33.93659527146604
      ],
      [
        -70.71221351623535,
        -33.938553522168995
      ],
      [
        -70.71221351623535,
        -33.94101017299262
      ],
      [
        -70.7120418548584,
        -33.94311073124287
      ],
      [
        -70.71208477020264,
        -33.94489082477859
      ],
      [
        -70.71221351623535,
        -33.94620807002933
      ],
      [
        -70.71251392364502,
        -33.94759649565839
      ],
      [
        -70.71277141571045,
        -33.94937649538418
      ],
      [
        -70.71341514587402,
        -33.95282958868507
      ],
      [
        -70.71341514587402,
        -33.95414671106887
      ],
      [
        -70.71264266967772,
        -33.95617575160181
      ],
      [
        -70.71109771728516,
        -33.96037606770973
      ],
      [
        -70.70959568023682,
        -33.964113462763144
      ],
      [
        -70.70822238922119,
        -33.96749477393551
      ],
      [
        -70.70702075958252,
        -33.970306498748236
      ],
      [
        -70.70611953735352,
        -33.97350961626675
      ],
      [
        -70.70491790771484,
        -33.975822903879646
      ],
      [
        -70.70431709289551,
        -33.97806495334864
      ],
      [
        -70.70384502410889,
        -33.97963079410042
      ],
      [
        -70.7030725479126,
        -33.981303364863315
      ],
      [
        -70.70212841033934,
        -33.983901122284685
      ],
      [
        -70.70131301879883,
        -33.98553802454059
      ],
      [
        -70.70096969604492,
        -33.987317230366074
      ],
      [
        -70.70101261138916,
        -33.98980805594521
      ],
      [
        -70.70118427276611,
        -33.99251229819639
      ],
      [
        -70.70148468017578,
        -33.994362519622634
      ],
      [
        -70.70169925689697,
        -33.99575015925126
      ],
      [
        -70.70178508758544,
        -33.99756473072182
      ],
      [
        -70.70182800292969,
        -33.99984178518139
      ],
      [
        -70.70208549499512,
        -34.002937058204814
      ],
      [
        -70.70272922515869,
        -34.0051783923944
      ],
      [
        -70.70264339447021,
        -34.00717063979546
      ],
      [
        -70.70298671722412,
        -34.00980318074751
      ],
      [
        -70.70302963256836,
        -34.01229334707331
      ],
      [
        -70.70384502410889,
        -34.01613517471421
      ],
      [
        -70.70388793945312,
        -34.020332528390696
      ],
      [
        -70.7041883468628,
        -34.02221771291966
      ],
      [
        -70.70448875427246,
        -34.02442296998176
      ],
      [
        -70.70470333099365,
        -34.026841573128976
      ],
      [
        -70.70483207702637,
        -34.02854878090722
      ],
      [
        -70.70504665374756,
        -34.031322920289675
      ],
      [
        -70.70530414581299,
        -34.033065602488946
      ],
      [
        -70.70581912994385,
        -34.03470155728412
      ],
      [
        -70.70727825164795,
        -34.03683536395382
      ],
      [
        -70.70938110351562,
        -34.0382578719147
      ],
      [
        -70.71401596069336,
        -34.039929288285556
      ],
      [
        -70.71727752685547,
        -34.04096057131748
      ],
      [
        -70.71993827819824,
        -34.04184959834945
      ],
      [
        -70.72324275970459,
        -34.04305866015763
      ],
      [
        -70.72568893432617,
        -34.0441610250189
      ],
      [
        -70.72792053222656,
        -34.044801101265826
      ],
      [
        -70.72933673858643,
        -34.04579676582486
      ],
      [
        -70.73246955871582,
        -34.047859176650825
      ],
      [
        -70.73418617248535,
        -34.048783689358146
      ],
      [
        -70.73701858520508,
        -34.049992652303594
      ],
      [
        -70.73847770690918,
        -34.050810470403476
      ],
      [
        -70.74139595031738,
        -34.051557166996425
      ],
      [
        -70.74319839477539,
        -34.052126074272174
      ],
      [
        -70.74594497680664,
        -34.05337054562821
      ],
      [
        -70.74830532073975,
        -34.05415277541587
      ],
      [
        -70.74963569641113,
        -34.05489944257082
      ],
      [
        -70.75079441070555,
        -34.055752768409
      ],
      [
        -70.75135231018066,
        -34.05635720234703
      ],
      [
        -70.75354099273682,
        -34.059557074914984
      ],
      [
        -70.75491428375244,
        -34.06112141309237
      ],
      [
        -70.75590133666992,
        -34.06261461805321
      ],
      [
        -70.75706005096436,
        -34.06488992740196
      ],
      [
        -70.75826168060303,
        -34.06634751534824
      ],
      [
        -70.75959205627441,
        -34.068409426205285
      ],
      [
        -70.76156616210938,
        -34.071679940504964
      ],
      [
        -70.76311111450195,
        -34.07303076826281
      ],
      [
        -70.76457023620605,
        -34.07470149911376
      ],
      [
        -70.76564311981201,
        -34.07594563897924
      ],
      [
        -70.7678747177124,
        -34.07878931862131
      ],
      [
        -70.76916217803955,
        -34.080033398441884
      ],
      [
        -70.77049255371094,
        -34.081064193591665
      ],
      [
        -70.77130794525146,
        -34.081917255951424
      ],
      [
        -70.77272415161133,
        -34.083303463958075
      ],
      [
        -70.77362537384033,
        -34.08476073508727
      ],
      [
        -70.77439785003662,
        -34.0862890656683
      ],
      [
        -70.77534198760986,
        -34.088279408322876
      ],
      [
        -70.77589988708496,
        -34.09051848788057
      ],
      [
        -70.7768440246582,
        -34.0921177941645
      ],
      [
        -70.77731609344482,
        -34.09432123332901
      ],
      [
        -70.7779598236084,
        -34.096453539198016
      ],
      [
        -70.77911853790283,
        -34.098727939581174
      ],
      [
        -70.77946186065674,
        -34.10032709075339
      ],
      [
        -70.77980518341064,
        -34.10295674030903
      ],
      [
        -70.77993392944336,
        -34.10498222546687
      ],
      [
        -70.78010559082031,
        -34.10700766213744
      ],
      [
        -70.78023433685303,
        -34.109637104073826
      ],
      [
        -70.7805347442627,
        -34.11343899045752
      ],
      [
        -70.78062057495117,
        -34.115961643183404
      ],
      [
        -70.78070640563963,
        -34.11748941036342
      ],
      [
        -70.78079223632812,
        -34.12029616650779
      ],
      [
        -70.7814359664917,
        -34.121681745953914
      ],
      [
        -70.7819938659668,
        -34.12416862647367
      ],
      [
        -70.78259468078613,
        -34.126477807175135
      ],
      [
        -70.78315258026123,
        -34.128680351533376
      ],
      [
        -70.78422546386719,
        -34.131913014326216
      ],
      [
        -70.7845687866211,
        -34.13397332830016
      ],
      [
        -70.78516960144043,
        -34.1365308895687
      ],
      [
        -70.78568458557129,
        -34.13926597361084
      ],
      [
        -70.78645706176758,
        -34.14143266565745
      ],
      [
        -70.78684329986572,
        -34.14349274755082
      ],
      [
        -70.78791618347168,
        -34.147080011642124
      ],
      [
        -70.78920364379883,
        -34.14839411977112
      ],
      [
        -70.78954696655273,
        -34.15013439366771
      ],
      [
        -70.79070568084717,
        -34.15262043703754
      ],
      [
        -70.79164981842041,
        -34.15464473258645
      ],
      [
        -70.79263687133789,
        -34.15638487769562
      ],
      [
        -70.79319477081299,
        -34.15865766628416
      ],
      [
        -70.79375267028809,
        -34.16046875089414
      ],
      [
        -70.79401016235352,
        -34.162386327551395
      ],
      [
        -70.79413890838623,
        -34.16558219186305
      ],
      [
        -70.79370975494385,
        -34.16710906210183
      ],
      [
        -70.79358100891113,
        -34.168422858573145
      ],
      [
        -70.79336643218994,
        -34.170056198644474
      ],
      [
        -70.79293727874756,
        -34.17129893622086
      ],
      [
        -70.79233646392822,
        -34.17318076114498
      ],
      [
        -70.7920789718628,
        -34.17474299901583
      ],
      [
        -70.79182147979736,
        -34.1761276856784
      ],
      [
        -70.79139232635498,
        -34.178009402927835
      ],
      [
        -70.7909631729126,
        -34.1795005452847
      ],
      [
        -70.79061985015869,
        -34.180743143784824
      ],
      [
        -70.78920364379883,
        -34.183796308082975
      ],
      [
        -70.7887315750122,
        -34.1855358522806
      ],
      [
        -70.78825950622559,
        -34.187701357176756
      ],
      [
        -70.78778743743896,
        -34.18936982302923
      ],
      [
        -70.7872724533081,
        -34.19061227615956
      ],
      [
        -70.78714370727539,
        -34.19174821728999
      ],
      [
        -70.78684329986572,
        -34.193168122186876
      ],
      [
        -70.7863712310791,
        -34.19469449328693
      ],
      [
        -70.78585624694824,
        -34.1957948832202
      ],
      [
        -70.78568458557129,
        -34.196611292278455
      ],
      [
        -70.7854700088501,
        -34.19806661055995
      ],
      [
        -70.78516960144043,
        -34.19962838760143
      ],
      [
        -70.784912109375,
        -34.20218396035638
      ],
      [
        -70.78495502471924,
        -34.203319745603174
      ],
      [
        -70.78504085540771,
        -34.20438453037401
      ],
      [
        -70.78508377075195,
        -34.20544930169491
      ],
      [
        -70.78499794006346,
        -34.206797992726294
      ],
      [
        -70.78504085540771,
        -34.20772076889261
      ],
      [
        -70.78529834747314,
        -34.20885647953598
      ],
      [
        -70.78564167022704,
        -34.21045354673546
      ],
      [
        -70.78607082366943,
        -34.2119796048934
      ],
      [
        -70.78714370727539,
        -34.21407345367258
      ],
      [
        -70.78821659088135,
        -34.2159188365801
      ],
      [
        -70.78890323638916,
        -34.217125411244474
      ],
      [
        -70.78941822052002,
        -34.218154534804135
      ],
      [
        -70.79001903533936,
        -34.21939656373872
      ],
      [
        -70.79053401947021,
        -34.22081600295702
      ],
      [
        -70.79092025756835,
        -34.22202250748831
      ],
      [
        -70.79160690307617,
        -34.223158025379746
      ],
      [
        -70.79229354858398,
        -34.224719337486974
      ],
      [
        -70.7928943634033,
        -34.22571288466891
      ],
      [
        -70.79319477081299,
        -34.22748704691504
      ],
      [
        -70.79306602478027,
        -34.228799902916606
      ],
      [
        -70.79302310943604,
        -34.23000629309034
      ],
      [
        -70.7925510406494,
        -34.23163844052388
      ],
      [
        -70.79229354858398,
        -34.23273834812545
      ],
      [
        -70.7918643951416,
        -34.23396242195145
      ],
      [
        -70.79190731048583,
        -34.23465428189475
      ],
      [
        -70.79201459884644,
        -34.23557675297586
      ],
      [
        -70.79244375228882,
        -34.236339557966375
      ],
      [
        -70.79287290573119,
        -34.2371200954538
      ],
      [
        -70.79379558563232,
        -34.238752104998426
      ],
      [
        -70.79411745071411,
        -34.23923105831647
      ],
      [
        -70.79448223114014,
        -34.23992287496519
      ],
      [
        -70.7947826385498,
        -34.240596947256904
      ],
      [
        -70.79531908035278,
        -34.24155483017581
      ],
      [
        -70.7954478263855,
        -34.24182090682999
      ],
      [
        -70.79611301422119,
        -34.24270782293627
      ],
      [
        -70.7965636253357,
        -34.24343508717006
      ],
      [
        -70.79688549041748,
        -34.24416234512011
      ],
      [
        -70.79718589782715,
        -34.2446412676556
      ],
      [
        -70.79752922058105,
        -34.24540399051211
      ],
      [
        -70.79793691635132,
        -34.245811955714345
      ],
      [
        -70.79849481582642,
        -34.24719547515351
      ],
      [
        -70.79905271530151,
        -34.248117808810875
      ],
      [
        -70.79961061477661,
        -34.24877407852728
      ],
      [
        -70.80001831054688,
        -34.24955450071742
      ],
      [
        -70.80031871795654,
        -34.250512281695315
      ],
      [
        -70.80089807510376,
        -34.2513281605965
      ],
      [
        -70.80143451690672,
        -34.252161767825044
      ],
      [
        -70.80171346664429,
        -34.25274706158254
      ],
      [
        -70.80214262008667,
        -34.25347423906436
      ],
      [
        -70.80347299575806,
        -34.255708940283974
      ],
      [
        -70.80366611480713,
        -34.25608138471655
      ],
      [
        -70.80405235290526,
        -34.256577974728536
      ],
      [
        -70.80424547195435,
        -34.25741152994477
      ],
      [
        -70.80473899841309,
        -34.258316016687154
      ],
      [
        -70.80527544021606,
        -34.258989941662975
      ],
      [
        -70.80583333969116,
        -34.259983084418124
      ],
      [
        -70.80630540847778,
        -34.26081660589463
      ],
      [
        -70.80675601959229,
        -34.261614650632424
      ],
      [
        -70.80729246139526,
        -34.262128942118125
      ],
      [
        -70.80763578414917,
        -34.26255456027998
      ],
      [
        -70.80806493759155,
        -34.26402647315288
      ],
      [
        -70.80851554870605,
        -34.264806753867234
      ],
      [
        -70.80918073654175,
        -34.26579982794301
      ],
      [
        -70.80939531326294,
        -34.26658009220477
      ],
      [
        -70.81010341644287,
        -34.26757314534061
      ],
      [
        -70.81053256988525,
        -34.26831792749695
      ],
      [
        -70.81109046936035,
        -34.26925776223269
      ],
      [
        -70.81184148788452,
        -34.27046357254736
      ],
      [
        -70.81216335296631,
        -34.27117286465517
      ],
      [
        -70.81278562545776,
        -34.272183595570866
      ],
      [
        -70.81306457519531,
        -34.27276875002142
      ],
      [
        -70.81351518630981,
        -34.27344255919248
      ],
      [
        -70.81403017044067,
        -34.27422275253897
      ],
      [
        -70.81482410430908,
        -34.27557034217534
      ],
      [
        -70.81548929214478,
        -34.27654555804501
      ],
      [
        -70.81576824188232,
        -34.27734345352383
      ],
      [
        -70.81628322601318,
        -34.27831864882447
      ],
      [
        -70.8168625831604,
        -34.278956952349866
      ],
      [
        -70.8173131942749,
        -34.279630711923886
      ],
      [
        -70.81787109374999,
        -34.280676801613204
      ],
      [
        -70.81836462020874,
        -34.28159876817282
      ],
      [
        -70.8189868927002,
        -34.28257391410575
      ],
      [
        -70.8194375038147,
        -34.28349585985553
      ],
      [
        -70.82010269165039,
        -34.2847901127859
      ],
      [
        -70.82059621810913,
        -34.28576522169114
      ],
      [
        -70.82111120223999,
        -34.28645665569531
      ],
      [
        -70.82158327102661,
        -34.28732537240566
      ],
      [
        -70.82186222076416,
        -34.28796360753134
      ],
      [
        -70.82207679748535,
        -34.28911596423041
      ],
      [
        -70.82226991653442,
        -34.29021512050954
      ],
      [
        -70.82246303558348,
        -34.29104834230114
      ],
      [
        -70.82274198532104,
        -34.29204110641401
      ],
      [
        -70.82289218902588,
        -34.29278567180054
      ],
      [
        -70.82310676574707,
        -34.29372523299028
      ],
      [
        -70.82332134246826,
        -34.29501932836893
      ],
      [
        -70.82351446151733,
        -34.295728413273025
      ],
      [
        -70.82366466522217,
        -34.2964906728695
      ],
      [
        -70.82379341125487,
        -34.29753655268757
      ],
      [
        -70.82411527633666,
        -34.298901494896754
      ],
      [
        -70.82424402236938,
        -34.299947344697735
      ],
      [
        -70.82445859909056,
        -34.30067411400903
      ],
      [
        -70.82460880279541,
        -34.30138315117907
      ],
      [
        -70.8248233795166,
        -34.302269439224204
      ],
      [
        -70.82497358322144,
        -34.303332972532644
      ],
      [
        -70.8253812789917,
        -34.30503459781217
      ],
      [
        -70.82563877105713,
        -34.30560179857661
      ],
      [
        -70.82570314407349,
        -34.30629306932844
      ],
      [
        -70.82596063613892,
        -34.307427450025656
      ],
      [
        -70.82600355148315,
        -34.30838457181889
      ],
      [
        -70.82645416259766,
        -34.3096607172387
      ],
      [
        -70.8268404006958,
        -34.31090139557937
      ],
      [
        -70.82744121551514,
        -34.31191164868564
      ],
      [
        -70.82763433456421,
        -34.31324091056759
      ],
      [
        -70.82789182662964,
        -34.314552428329904
      ],
      [
        -70.82825660705566,
        -34.315403131598295
      ],
      [
        -70.8285140991211,
        -34.3162892716688
      ],
      [
        -70.82900762557983,
        -34.3173349049201
      ],
      [
        -70.82928657531738,
        -34.31848685867645
      ],
      [
        -70.82967281341553,
        -34.3195147425269
      ],
      [
        -70.82995176315308,
        -34.3205957792018
      ],
      [
        -70.8304238319397,
        -34.32137553471661
      ],
      [
        -70.83078861236572,
        -34.32265148265925
      ],
      [
        -70.8309817314148,
        -34.32339577666708
      ],
      [
        -70.83136796951293,
        -34.32431727438796
      ],
      [
        -70.83147525787354,
        -34.32538052841502
      ],
      [
        -70.83175420761108,
        -34.326337445520565
      ],
      [
        -70.83218336105347,
        -34.32729435171342
      ],
      [
        -70.83248376846313,
        -34.32802088431227
      ],
      [
        -70.83284854888916,
        -34.328729690541074
      ],
      [
        -70.83299875259398,
        -34.32956253020845
      ],
      [
        -70.83334207534789,
        -34.33055483901869
      ],
      [
        -70.83370685577393,
        -34.33154713609224
      ],
      [
        -70.83387851715088,
        -34.33211415772182
      ],
      [
        -70.83405017852783,
        -34.33287608700155
      ],
      [
        -70.83426475524902,
        -34.333638009361046
      ],
      [
        -70.83462953567505,
        -34.334470800303244
      ],
      [
        -70.8350157737732,
        -34.33507323966083
      ],
      [
        -70.83503723144531,
        -34.335959172032695
      ],
      [
        -70.83544492721558,
        -34.336614755963765
      ],
      [
        -70.83578824996948,
        -34.33719946163335
      ],
      [
        -70.83621740341187,
        -34.337766445056666
      ],
      [
        -70.8368182182312,
        -34.33957367913915
      ],
      [
        -70.8374834060669,
        -34.34079619776007
      ],
      [
        -70.83795547485352,
        -34.341540330804214
      ],
      [
        -70.83829879760742,
        -34.34200098128452
      ],
      [
        -70.83879232406616,
        -34.342674235127134
      ],
      [
        -70.83937168121338,
        -34.34379040722041
      ],
      [
        -70.83971500396729,
        -34.344835697772346
      ],
      [
        -70.84035873413086,
        -34.34572152702267
      ],
      [
        -70.84091663360596,
        -34.34643018368493
      ],
      [
        -70.84136724472046,
        -34.34754630578257
      ],
      [
        -70.8418607711792,
        -34.348201799136795
      ],
      [
        -70.84224700927734,
        -34.34891043483588
      ],
      [
        -70.84271907806396,
        -34.349654495873615
      ],
      [
        -70.84340572357178,
        -34.35054027421315
      ],
      [
        -70.84385633468627,
        -34.351319751410216
      ],
      [
        -70.84437131881714,
        -34.35243580841536
      ],
      [
        -70.844886302948,
        -34.35349870603466
      ],
      [
        -70.84529399871826,
        -34.354065579254176
      ],
      [
        -70.84585189819336,
        -34.35505759816368
      ],
      [
        -70.84632396697998,
        -34.355553603215725
      ],
      [
        -70.8467960357666,
        -34.356386176525966
      ],
      [
        -70.84707498550415,
        -34.3570593148581
      ],
      [
        -70.84765434265137,
        -34.35831700620205
      ],
      [
        -70.84797620773315,
        -34.35870670954897
      ],
      [
        -70.84840536117554,
        -34.35950382438722
      ],
      [
        -70.8487057685852,
        -34.3599289492009
      ],
      [
        -70.8489203453064,
        -34.360548919021745
      ],
      [
        -70.84930658340454,
        -34.36106260482736
      ],
      [
        -70.84975719451903,
        -34.36200140178439
      ],
      [
        -70.84995031356812,
        -34.36242651392798
      ],
      [
        -70.85059404373169,
        -34.36320588058989
      ],
      [
        -70.85091590881348,
        -34.36373726279419
      ],
      [
        -70.85125923156738,
        -34.36451661726484
      ],
      [
        -70.85151672363281,
        -34.36503027874807
      ],
      [
        -70.85179567337036,
        -34.36538452621213
      ],
      [
        -70.85233211517334,
        -34.366270138319685
      ],
      [
        -70.85265398025513,
        -34.36701404525588
      ],
      [
        -70.85293292999268,
        -34.36774023375102
      ],
      [
        -70.8534049987793,
        -34.36828929892219
      ],
      [
        -70.8537483215332,
        -34.36871437916399
      ],
      [
        -70.85404872894286,
        -34.36961766751643
      ],
      [
        -70.85454225540161,
        -34.37039696728849
      ],
      [
        -70.85529327392578,
        -34.371654458451516
      ],
      [
        -70.85552930831909,
        -34.37197325602859
      ],
      [
        -70.85619449615479,
        -34.372841087730414
      ],
      [
        -70.85645198822021,
        -34.373567225714766
      ],
      [
        -70.8569884300232,
        -34.374576724160725
      ],
      [
        -70.85748195648193,
        -34.37553307988634
      ],
      [
        -70.85797548294067,
        -34.37622377445243
      ],
      [
        -70.85840463638306,
        -34.376914463322535
      ],
      [
        -70.85881233215332,
        -34.377516597690054
      ],
      [
        -70.85928440093994,
        -34.37840208154257
      ],
      [
        -70.85964918136595,
        -34.37900420521442
      ],
      [
        -70.85994958877563,
        -34.379570905892
      ],
      [
        -70.86048603057861,
        -34.380403240559474
      ],
      [
        -70.86072206497192,
        -34.38091680463145
      ],
      [
        -70.86108684539795,
        -34.38155432806313
      ],
      [
        -70.86123704910278,
        -34.381890796806346
      ],
      [
        -70.86190223693848,
        -34.38268769106825
      ],
      [
        -70.86213827133179,
        -34.38309498965112
      ],
      [
        -70.86235284805298,
        -34.38353770325494
      ],
      [
        -70.8626103401184,
        -34.38421062344964
      ],
      [
        -70.86318969726562,
        -34.385538739542135
      ],
      [
        -70.86357593536376,
        -34.386016856178074
      ],
      [
        -70.86387634277344,
        -34.38658350939615
      ],
      [
        -70.86424112319945,
        -34.38716786651031
      ],
      [
        -70.86467027664185,
        -34.387876172695485
      ],
      [
        -70.86479902267456,
        -34.38821261603411
      ],
      [
        -70.86533546447754,
        -34.388991742784896
      ],
      [
        -70.86559295654297,
        -34.38966461914321
      ],
      [
        -70.86606502532959,
        -34.390160419314746
      ],
      [
        -70.86655855178833,
        -34.39081557932304
      ],
      [
        -70.86728811264038,
        -34.39242689698822
      ],
      [
        -70.86767435073853,
        -34.39294038730907
      ],
      [
        -70.86812496185303,
        -34.39373717639785
      ],
      [
        -70.86825370788574,
        -34.39405588990952
      ],
      [
        -70.86885452270506,
        -34.39488808057935
      ],
      [
        -70.86911201477051,
        -34.39549008569312
      ],
      [
        -70.86958408355713,
        -34.396269144706565
      ],
      [
        -70.87007761001587,
        -34.397136724618285
      ],
      [
        -70.87069988250732,
        -34.39830528742632
      ],
      [
        -70.87119340896606,
        -34.39896038368069
      ],
      [
        -70.8714509010315,
        -34.39949153904108
      ],
      [
        -70.87155818939209,
        -34.39952694927857
      ],
      [
        -70.87175130844116,
        -34.4001289210232
      ],
      [
        -70.87207317352295,
        -34.40087252719957
      ],
      [
        -70.87230920791626,
        -34.401580717414326
      ],
      [
        -70.87275981903076,
        -34.40237742424137
      ],
      [
        -70.8734679222107,
        -34.40324494082547
      ],
      [
        -70.87400436401367,
        -34.40425408145279
      ],
      [
        -70.87451934814453,
        -34.40531632159513
      ],
      [
        -70.87509870529173,
        -34.40629002987771
      ],
      [
        -70.87567806243896,
        -34.4070866918613
      ],
      [
        -70.87612867355347,
        -34.40774171936444
      ],
      [
        -70.87655782699585,
        -34.408857024662886
      ],
      [
        -70.87692260742188,
        -34.40945892928083
      ],
      [
        -70.87737321853638,
        -34.40986609759591
      ],
      [
        -70.87788820266724,
        -34.41064502276314
      ],
      [
        -70.87823152542114,
        -34.41121150923794
      ],
      [
        -70.878746509552,
        -34.41250379214943
      ],
      [
        -70.87917566299438,
        -34.41314107500128
      ],
      [
        -70.879647731781,
        -34.41393767173761
      ],
      [
        -70.88011980056763,
        -34.41466345326954
      ],
      [
        -70.88035583496092,
        -34.415212210734154
      ],
      [
        -70.88093519210815,
        -34.41595568284548
      ],
      [
        -70.88106393814087,
        -34.416539834867585
      ],
      [
        -70.88153600692749,
        -34.41705317721549
      ],
      [
        -70.88162183761597,
        -34.41784973668905
      ],
      [
        -70.88196516036987,
        -34.41822146184671
      ],
      [
        -70.88235139846802,
        -34.418787897004705
      ],
      [
        -70.88271617889404,
        -34.419389730155885
      ],
      [
        -70.88316679000854,
        -34.420026960535814
      ],
      [
        -70.8833384513855,
        -34.42059338346333
      ],
      [
        -70.88376760482788,
        -34.42126600570605
      ],
      [
        -70.88387489318848,
        -34.42200942399486
      ],
      [
        -70.88421821594238,
        -34.4226997350586
      ],
      [
        -70.88430404663085,
        -34.423106838911586
      ],
      [
        -70.88449716567993,
        -34.42395644056723
      ],
      [
        -70.88481903076172,
        -34.42468213514445
      ],
      [
        -70.8851408958435,
        -34.425319325189164
      ],
      [
        -70.8853554725647,
        -34.42583261363772
      ],
      [
        -70.8854627609253,
        -34.42668218759289
      ],
      [
        -70.88576316833496,
        -34.42749635453124
      ],
      [
        -70.88599920272827,
        -34.42854060051823
      ],
      [
        -70.88619232177734,
        -34.429036170320444
      ],
      [
        -70.8863639831543,
        -34.42970872463827
      ],
      [
        -70.8867073059082,
        -34.430328177775
      ],
      [
        -70.88711500167847,
        -34.43165556189471
      ],
      [
        -70.88735103607178,
        -34.432257302417824
      ],
      [
        -70.88778018951416,
        -34.43338997870843
      ],
      [
        -70.88784456253052,
        -34.433814728359756
      ],
      [
        -70.88803768157959,
        -34.43457573275298
      ],
      [
        -70.88818788528442,
        -34.43508896436124
      ],
      [
        -70.88846683502197,
        -34.43574377252665
      ],
      [
        -70.88859558105469,
        -34.4362039049247
      ],
      [
        -70.88868141174316,
        -34.4368410071393
      ],
      [
        -70.88891744613646,
        -34.43751349865174
      ],
      [
        -70.88896036148071,
        -34.43804440918072
      ],
      [
        -70.88926076889038,
        -34.43878767825426
      ],
      [
        -70.88945388793945,
        -34.43946015409992
      ],
      [
        -70.88979721069336,
        -34.440344982493144
      ],
      [
        -70.88988304138182,
        -34.44075200040746
      ],
      [
        -70.89020490646361,
        -34.44163681511992
      ],
      [
        -70.8903980255127,
        -34.4424862284281
      ],
      [
        -70.890634059906,
        -34.44319406625467
      ],
      [
        -70.89091300964355,
        -34.44376033219788
      ],
      [
        -70.89125633239746,
        -34.44460972391596
      ],
      [
        -70.89136362075806,
        -34.445246762036994
      ],
      [
        -70.8914065361023,
        -34.4456891467629
      ],
      [
        -70.89166402816772,
        -34.446326176652455
      ],
      [
        -70.89194297790527,
        -34.4468747262757
      ],
      [
        -70.89200735092163,
        -34.44767100157696
      ],
      [
        -70.89222192764282,
        -34.44864421663676
      ],
      [
        -70.89252233505248,
        -34.449281223990305
      ],
      [
        -70.89269399642944,
        -34.4501305595712
      ],
      [
        -70.89308023452759,
        -34.450997580734715
      ],
      [
        -70.89357376098633,
        -34.45188228692972
      ],
      [
        -70.89370250701904,
        -34.452660820628964
      ],
      [
        -70.89406728744507,
        -34.4537224457954
      ],
      [
        -70.89436769485474,
        -34.45501407154925
      ],
      [
        -70.89458227157593,
        -34.45593412154622
      ],
      [
        -70.89462518692017,
        -34.456164132461545
      ],
      [
        -70.8946681022644,
        -34.45657107329813
      ],
      [
        -70.89481830596922,
        -34.456871854380964
      ],
      [
        -70.89490413665771,
        -34.457261098879854
      ],
      [
        -70.89509725570679,
        -34.45772111276643
      ],
      [
        -70.8953332901001,
        -34.45819881681238
      ],
      [
        -70.89539766311646,
        -34.45853497728044
      ],
      [
        -70.89561223983765,
        -34.459242679105124
      ],
      [
        -70.8957839012146,
        -34.4596142201618
      ],
      [
        -70.89584827423096,
        -34.460109605665444
      ],
      [
        -70.89604139328003,
        -34.460445758440365
      ],
      [
        -70.89619159698486,
        -34.46099421532543
      ],
      [
        -70.8963418006897,
        -34.46133036453863
      ],
      [
        -70.89653491973877,
        -34.46210881015176
      ],
      [
        -70.8966851234436,
        -34.46260418085362
      ],
      [
        -70.89681386947632,
        -34.46299339862869
      ],
      [
        -70.89700698852539,
        -34.46357722188881
      ],
      [
        -70.89709281921387,
        -34.464054892428344
      ],
      [
        -70.89726448059082,
        -34.46458563426658
      ],
      [
        -70.89739322662354,
        -34.465080990271105
      ],
      [
        -70.89758634567261,
        -34.46559403446265
      ],
      [
        -70.89775800704956,
        -34.46610707550092
      ],
      [
        -70.89799404144287,
        -34.467062384893815
      ],
      [
        -70.89816570281982,
        -34.467593107609964
      ],
      [
        -70.89833736419678,
        -34.46805306456764
      ],
      [
        -70.89846611022949,
        -34.468636852440675
      ],
      [
        -70.89868068695068,
        -34.469185255510915
      ],
      [
        -70.898916721344,
        -34.46975134522318
      ],
      [
        -70.89910984039305,
        -34.470299740970425
      ],
      [
        -70.8992600440979,
        -34.47114886276004
      ],
      [
        -70.89947462081909,
        -34.47152035082635
      ],
      [
        -70.89968919754028,
        -34.47222794256846
      ],
      [
        -70.89986085891724,
        -34.47268787398354
      ],
      [
        -70.90001106262207,
        -34.47318318190342
      ],
      [
        -70.9001612663269,
        -34.473713865698116
      ],
      [
        -70.90035438537598,
        -34.4742091675283
      ],
      [
        -70.90059041976929,
        -34.47473984479828
      ],
      [
        -70.9007406234741,
        -34.4757127443612
      ],
      [
        -70.90091228485107,
        -34.476137278797374
      ],
      [
        -70.90114831924438,
        -34.47686252012902
      ],
      [
        -70.90136289596558,
        -34.47726936006727
      ],
      [
        -70.90153455734253,
        -34.47772926369567
      ],
      [
        -70.90172767639159,
        -34.47838373756543
      ],
      [
        -70.90211391448975,
        -34.478914388285624
      ],
      [
        -70.90224266052246,
        -34.47946272381744
      ],
      [
        -70.90265035629272,
        -34.47997567960073
      ],
      [
        -70.90286493301392,
        -34.48036481636699
      ],
      [
        -70.90335845947264,
        -34.48089545448675
      ],
      [
        -70.90372323989868,
        -34.48144377699804
      ],
      [
        -70.9040880203247,
        -34.48183290691646
      ],
      [
        -70.90449571609497,
        -34.4823989108303
      ],
      [
        -70.904860496521,
        -34.482593473788754
      ],
      [
        -70.90546131134033,
        -34.48294722345971
      ],
      [
        -70.90608358383179,
        -34.48358396908714
      ],
      [
        -70.90666294097899,
        -34.484026150691015
      ],
      [
        -70.90717792510986,
        -34.48445064282553
      ],
      [
        -70.90754270553589,
        -34.484786697566655
      ],
      [
        -70.90805768966675,
        -34.485105063967275
      ],
      [
        -70.90848684310913,
        -34.48551186371086
      ],
      [
        -70.90870141983032,
        -34.48572410626776
      ],
      [
        -70.90917348861694,
        -34.4862370235506
      ],
      [
        -70.90951681137085,
        -34.48706829658656
      ],
      [
        -70.90986013412476,
        -34.48754583266897
      ],
      [
        -70.91016054153442,
        -34.48805873874912
      ],
      [
        -70.91050386428833,
        -34.4886247004184
      ],
      [
        -70.91097593307495,
        -34.48929677491238
      ],
      [
        -70.9113621711731,
        -34.48977429823538
      ],
      [
        -70.91179132461548,
        -34.49025181882415
      ],
      [
        -70.91198444366455,
        -34.49074702247267
      ],
      [
        -70.91252088546753,
        -34.491206851799014
      ],
      [
        -70.91303586959839,
        -34.49219724481335
      ],
      [
        -70.91342210769653,
        -34.49283391982561
      ],
      [
        -70.91376543045044,
        -34.493541330804696
      ],
      [
        -70.91402292251587,
        -34.49387734891743
      ],
      [
        -70.91421604156493,
        -34.4942133656761
      ],
      [
        -70.91451644897461,
        -34.49462012099337
      ],
      [
        -70.9148383140564,
        -34.49497381965637
      ],
      [
        -70.91516017913818,
        -34.49545131047148
      ],
      [
        -70.91541767120361,
        -34.4958226903261
      ],
      [
        -70.9158682823181,
        -34.49647702223567
      ],
      [
        -70.91599702835083,
        -34.49665386781625
      ],
      [
        -70.91646909713745,
        -34.497255139984446
      ],
      [
        -70.91661930084229,
        -34.4975734587886
      ],
      [
        -70.91711282730103,
        -34.49813935588407
      ],
      [
        -70.91724157333374,
        -34.49851072376551
      ],
      [
        -70.91752052307127,
        -34.498864405924174
      ],
      [
        -70.91779947280884,
        -34.49941261030487
      ],
      [
        -70.91805696487427,
        -34.49969555309094
      ],
      [
        -70.91844320297241,
        -34.500367538359185
      ],
      [
        -70.91897964477539,
        -34.5013047719242
      ],
      [
        -70.91930150985718,
        -34.50183527681905
      ],
      [
        -70.91960191726685,
        -34.50224199495206
      ],
      [
        -70.91985940933228,
        -34.502701760886765
      ],
      [
        -70.92015981674194,
        -34.50314384112485
      ],
      [
        -70.92048168182372,
        -34.50358591901838
      ],
      [
        -70.92076063156128,
        -34.50399262860968
      ],
      [
        -70.92101812362671,
        -34.50438165331836
      ],
      [
        -70.92138290405273,
        -34.50485909025203
      ],
      [
        -70.92179059982298,
        -34.505584081847765
      ],
      [
        -70.92219829559326,
        -34.50639747954614
      ],
      [
        -70.92243432998656,
        -34.506574304082335
      ],
      [
        -70.92284202575684,
        -34.50733464531314
      ],
      [
        -70.92322826385498,
        -34.507776700979484
      ],
      [
        -70.92350721359253,
        -34.50814802592721
      ],
      [
        -70.92397928237915,
        -34.50873153321672
      ],
      [
        -70.92423677444458,
        -34.50915589958846
      ],
      [
        -70.9248161315918,
        -34.50979244509431
      ],
      [
        -70.92494487762451,
        -34.51026985103295
      ],
      [
        -70.9253740310669,
        -34.510994795561786
      ],
      [
        -70.92556715011597,
        -34.511383787587086
      ],
      [
        -70.92595338821411,
        -34.51191422833161
      ],
      [
        -70.92618942260742,
        -34.51223249115757
      ],
      [
        -70.92679023742676,
        -34.51306350502786
      ],
      [
        -70.92739105224608,
        -34.51366465883162
      ],
      [
        -70.92760562896729,
        -34.51407131923955
      ],
      [
        -70.92797040939331,
        -34.51469014648695
      ],
      [
        -70.92824935913086,
        -34.51516752436605
      ],
      [
        -70.928635597229,
        -34.515857065362695
      ],
      [
        -70.92893600463867,
        -34.51624603468941
      ],
      [
        -70.92947244644165,
        -34.51686484578477
      ],
      [
        -70.92970848083496,
        -34.5174129317738
      ],
      [
        -70.93007326126099,
        -34.518261573933295
      ],
      [
        -70.93054533004761,
        -34.51873893134904
      ],
      [
        -70.9309959411621,
        -34.51937540364851
      ],
      [
        -70.93144655227661,
        -34.51988811390892
      ],
      [
        -70.93163967132567,
        -34.52024170535342
      ],
      [
        -70.93228340148926,
        -34.52107263934018
      ],
      [
        -70.93260526657104,
        -34.521656056122666
      ],
      [
        -70.93303442001343,
        -34.52222178970638
      ],
      [
        -70.9332275390625,
        -34.522398580663314
      ],
      [
        -70.93374252319336,
        -34.52338860308794
      ],
      [
        -70.93393564224243,
        -34.5239189674035
      ],
      [
        -70.93432188034058,
        -34.52455540012438
      ],
      [
        -70.93451499938965,
        -34.5248912932109
      ],
      [
        -70.93502998352051,
        -34.525474683246856
      ],
      [
        -70.93522310256958,
        -34.52588128600687
      ],
      [
        -70.93571662902832,
        -34.52650002552859
      ],
      [
        -70.93621015548706,
        -34.527207150781834
      ],
      [
        -70.93661785125732,
        -34.52770213488672
      ],
      [
        -70.93676805496216,
        -34.52798498162577
      ],
      [
        -70.93728303909302,
        -34.528639061030404
      ],
      [
        -70.937819480896,
        -34.5292754576824
      ],
      [
        -70.93831300735474,
        -34.53023004354153
      ],
      [
        -70.93865633010864,
        -34.53081339617961
      ],
      [
        -70.93904256820679,
        -34.531467453368606
      ],
      [
        -70.93942880630493,
        -34.53190938099337
      ],
      [
        -70.93979358673096,
        -34.532563429573585
      ],
      [
        -70.94009399414062,
        -34.53323514979475
      ],
      [
        -70.94056606292725,
        -34.53376545140464
      ],
      [
        -70.94110250473022,
        -34.534543220989505
      ],
      [
        -70.94144582748413,
        -34.53503816148789
      ],
      [
        -70.94211101531982,
        -34.535639156708925
      ],
      [
        -70.9425401687622,
        -34.5359750050899
      ],
      [
        -70.94305515289307,
        -34.53638155658052
      ],
      [
        -70.9435486793518,
        -34.53680578210621
      ],
      [
        -70.94408512115479,
        -34.53723000547018
      ],
      [
        -70.9445571899414,
        -34.53772492999595
      ],
      [
        -70.94492197036743,
        -34.53804309420877
      ],
      [
        -70.94547986984253,
        -34.53846731126764
      ],
      [
        -70.94575881958008,
        -34.53869709460524
      ],
      [
        -70.94670295715332,
        -34.53947481811845
      ],
      [
        -70.94728231430054,
        -34.54018183318884
      ],
      [
        -70.94786167144775,
        -34.54060603934864
      ],
      [
        -70.94844102859497,
        -34.54095954283041
      ],
      [
        -70.94889163970947,
        -34.54145444518272
      ],
      [
        -70.94944953918457,
        -34.54196701951701
      ],
      [
        -70.94998598098755,
        -34.54230284236937
      ],
      [
        -70.9503722190857,
        -34.54263866386681
      ],
      [
        -70.95131635665894,
        -34.5432926281576
      ],
      [
        -70.95153093338013,
        -34.54378751663781
      ],
      [
        -70.95245361328125,
        -34.54465356439751
      ],
      [
        -70.95305442810059,
        -34.54528983864153
      ],
      [
        -70.9536337852478,
        -34.54574936701473
      ],
      [
        -70.95425605773926,
        -34.54613819673333
      ],
      [
        -70.9546422958374,
        -34.54659772042223
      ],
      [
        -70.95528602600098,
        -34.54700422003194
      ],
      [
        -70.9557580947876,
        -34.54730467498899
      ],
      [
        -70.95631599426268,
        -34.54769349744082
      ],
      [
        -70.95680952072144,
        -34.5482590541277
      ],
      [
        -70.95794677734374,
        -34.549248769080904
      ],
      [
        -70.95850467681885,
        -34.54976129541249
      ],
      [
        -70.95910549163818,
        -34.55016777956873
      ],
      [
        -70.95942735671997,
        -34.55041520373511
      ],
      [
        -70.95994234085082,
        -34.55085703077372
      ],
      [
        -70.96045732498169,
        -34.55136954719938
      ],
      [
        -70.96097230911255,
        -34.55186438764935
      ],
      [
        -70.96153020858765,
        -34.55237689787007
      ],
      [
        -70.96193790435791,
        -34.552783369248644
      ],
      [
        -70.96243143081665,
        -34.55308380333912
      ],
      [
        -70.96273183822632,
        -34.55334889134158
      ],
      [
        -70.96307516098022,
        -34.55396742672935
      ],
      [
        -70.96352577209473,
        -34.55456828527422
      ],
      [
        -70.96397638320923,
        -34.55515146735902
      ],
      [
        -70.96423387527466,
        -34.55578766133462
      ],
      [
        -70.96449136734009,
        -34.556088084576395
      ],
      [
        -70.96494197845459,
        -34.5567949585128
      ],
      [
        -70.96498489379883,
        -34.557060034690444
      ],
      [
        -70.96554279327393,
        -34.55794361584894
      ],
      [
        -70.9656286239624,
        -34.55838540290877
      ],
      [
        -70.96605777740479,
        -34.5591452711632
      ],
      [
        -70.96625089645386,
        -34.559534038283616
      ],
      [
        -70.9667444229126,
        -34.56017019874315
      ],
      [
        -70.96702337265015,
        -34.560771012487486
      ],
      [
        -70.9673023223877,
        -34.56161921273826
      ],
      [
        -70.96755981445312,
        -34.56204330962
      ],
      [
        -70.9678602218628,
        -34.562608768765166
      ],
      [
        -70.96818208694458,
        -34.56312121279481
      ],
      [
        -70.96837520599365,
        -34.5634922909832
      ],
      [
        -70.96869707107544,
        -34.5639693890783
      ],
      [
        -70.96904039382935,
        -34.564428814286856
      ],
      [
        -70.96912622451781,
        -34.56481755671176
      ],
      [
        -70.96949100494385,
        -34.56543600682457
      ],
      [
        -70.96959829330444,
        -34.56605445233821
      ],
      [
        -70.97011327743529,
        -34.56667289325262
      ],
      [
        -70.97015619277954,
        -34.5670086163944
      ],
      [
        -70.9706711769104,
        -34.5676447196829
      ],
      [
        -70.97071409225464,
        -34.56805111645867
      ],
      [
        -70.97125053405762,
        -34.56912894176647
      ],
      [
        -70.97148656845093,
        -34.56974735981568
      ],
      [
        -70.97155094146729,
        -34.570030063677706
      ],
      [
        -70.97163677215576,
        -34.57063080619305
      ],
      [
        -70.97176551818846,
        -34.57121387566009
      ],
      [
        -70.97187280654907,
        -34.571549580468094
      ],
      [
        -70.97198009490967,
        -34.57220331752009
      ],
      [
        -70.97198009490967,
        -34.5726980340345
      ],
      [
        -70.97146511077881,
        -34.57361678546557
      ],
      [
        -70.97114324569702,
        -34.574288174321346
      ],
      [
        -70.97092866897583,
        -34.57469453862634
      ],
      [
        -70.97047805786133,
        -34.575383586603834
      ],
      [
        -70.97034931182861,
        -34.57571927457518
      ],
      [
        -70.96994161605835,
        -34.57630230835631
      ],
      [
        -70.96972703933716,
        -34.57697367552367
      ],
      [
        -70.96949100494385,
        -34.57753903314321
      ],
      [
        -70.9692120552063,
        -34.57810438691761
      ],
      [
        -70.96895456314087,
        -34.57870507108971
      ],
      [
        -70.96867561340332,
        -34.57925274993397
      ],
      [
        -70.96839666366577,
        -34.579676756883416
      ],
      [
        -70.96803188323975,
        -34.580401097084966
      ],
      [
        -70.96779584884644,
        -34.58091343146482
      ],
      [
        -70.96755981445312,
        -34.58116076417304
      ],
      [
        -70.96732378005981,
        -34.581620094392775
      ],
      [
        -70.96715211868286,
        -34.5820617556716
      ],
      [
        -70.96689462661743,
        -34.582521080911874
      ],
      [
        -70.96659421920776,
        -34.58301573602393
      ],
      [
        -70.9662938117981,
        -34.58345738988609
      ],
      [
        -70.96610069274902,
        -34.583757713171714
      ],
      [
        -70.96580028533936,
        -34.58414636522441
      ],
      [
        -70.96569299697876,
        -34.5843230246475
      ],
      [
        -70.96567153930664,
        -34.58504732435595
      ],
      [
        -70.965735912323,
        -34.58547130174388
      ],
      [
        -70.96541404724121,
        -34.586160260385704
      ],
      [
        -70.9656286239624,
        -34.58654890120222
      ],
      [
        -70.96595048904419,
        -34.58702586699277
      ],
      [
        -70.96627235412598,
        -34.587502830045544
      ],
      [
        -70.96655130386353,
        -34.58778547352567
      ],
      [
        -70.96687316894531,
        -34.588015120645345
      ],
      [
        -70.9673023223877,
        -34.58842141784074
      ],
      [
        -70.96751689910889,
        -34.588633398197494
      ],
      [
        -70.96779584884644,
        -34.58907502220378
      ],
      [
        -70.96807479858398,
        -34.58935766033596
      ],
      [
        -70.9683108329773,
        -34.58971095664916
      ],
      [
        -70.96871852874756,
        -34.59031155693391
      ],
      [
        -70.96906185150146,
        -34.590753172020555
      ],
      [
        -70.96934080123901,
        -34.59092981739796
      ],
      [
        -70.96961975097656,
        -34.591194784759885
      ],
      [
        -70.96985578536987,
        -34.591424422456676
      ],
      [
        -70.97002744674683,
        -34.59158340202879
      ],
      [
        -70.97054243087769,
        -34.59213099600418
      ],
      [
        -70.97069263458252,
        -34.592219317275095
      ],
      [
        -70.97112178802489,
        -34.59255493724826
      ],
      [
        -70.97129344940186,
        -34.59274924292882
      ],
      [
        -70.97159385681152,
        -34.5931201888752
      ],
      [
        -70.97191572189331,
        -34.593385149251404
      ],
      [
        -70.97249507904053,
        -34.594074042274634
      ],
      [
        -70.97294569015503,
        -34.59465694729388
      ],
      [
        -70.97309589385985,
        -34.5949219027687
      ],
      [
        -70.97361087799072,
        -34.59541648406063
      ],
      [
        -70.97386837005615,
        -34.59569910061965
      ],
      [
        -70.97434043884277,
        -34.596017043099216
      ],
      [
        -70.9748125076294,
        -34.59665292440759
      ],
      [
        -70.97517728805542,
        -34.59711216899186
      ],
      [
        -70.9754991531372,
        -34.597394779781695
      ],
      [
        -70.97599267959595,
        -34.597907009387484
      ],
      [
        -70.97622871398926,
        -34.59834858409852
      ],
      [
        -70.97663640975952,
        -34.59882548214968
      ],
      [
        -70.97723722457886,
        -34.599355365661715
      ],
      [
        -70.97792387008667,
        -34.599991221413894
      ],
      [
        -70.97815990447998,
        -34.600521097488794
      ],
      [
        -70.97867488861083,
        -34.60098032068588
      ],
      [
        -70.97901821136473,
        -34.60145720362604
      ],
      [
        -70.97931861877441,
        -34.60161616399759
      ],
      [
        -70.98015546798706,
        -34.602728878079276
      ],
      [
        -70.9807562828064,
        -34.603576650229996
      ],
      [
        -70.98094940185547,
        -34.60373560654476
      ],
      [
        -70.98140001296997,
        -34.604124165144384
      ],
      [
        -70.98167896270752,
        -34.604565706800734
      ],
      [
        -70.98206520080566,
        -34.60506023066862
      ],
      [
        -70.98238706588745,
        -34.60539579875887
      ],
      [
        -70.9827733039856,
        -34.60571370411981
      ],
      [
        -70.98307371139526,
        -34.60603160826365
      ],
      [
        -70.98343849182129,
        -34.60645547856219
      ],
      [
        -70.98373889923096,
        -34.60679104101401
      ],
      [
        -70.98399639129639,
        -34.60705595778124
      ],
      [
        -70.98440408706665,
        -34.6074621618494
      ],
      [
        -70.98496198654175,
        -34.60795666846758
      ],
      [
        -70.98515510559082,
        -34.60822158151584
      ],
      [
        -70.98547697067261,
        -34.608574797598735
      ],
      [
        -70.98592758178711,
        -34.608998654914714
      ],
      [
        -70.9861421585083,
        -34.609228243390746
      ],
      [
        -70.98644256591797,
        -34.60954613407869
      ],
      [
        -70.9867000579834,
        -34.609899344526674
      ],
      [
        -70.98719358444214,
        -34.61076470377359
      ],
      [
        -70.98727941513062,
        -34.61090598605943
      ],
      [
        -70.98742961883545,
        -34.61173601463315
      ],
      [
        -70.98755836486815,
        -34.611983255582906
      ],
      [
        -70.98766565322876,
        -34.61242475544747
      ],
      [
        -70.987708568573,
        -34.6127426338961
      ],
      [
        -70.98785877227783,
        -34.613272428605576
      ],
      [
        -70.98788022994994,
        -34.61343136635911
      ],
      [
        -70.98792314529419,
        -34.613713921614
      ],
      [
        -70.98794460296631,
        -34.61385519888079
      ],
      [
        -70.98807334899902,
        -34.61422605056218
      ],
      [
        -70.98809480667114,
        -34.61484413301607
      ],
      [
        -70.98807334899902,
        -34.61533859566562
      ],
      [
        -70.98809480667114,
        -34.615921351435524
      ],
      [
        -70.98820209503172,
        -34.61662771658058
      ],
      [
        -70.98837375640869,
        -34.617175145433436
      ],
      [
        -70.98839521408081,
        -34.61772257067581
      ],
      [
        -70.98839521408081,
        -34.61858784837255
      ],
      [
        -70.98845958709717,
        -34.61954140926336
      ],
      [
        -70.98854541778563,
        -34.61985926045904
      ],
      [
        -70.98865270614624,
        -34.62058325030489
      ],
      [
        -70.9887170791626,
        -34.620989388184846
      ],
      [
        -70.9887170791626,
        -34.621607420275566
      ],
      [
        -70.98878145217896,
        -34.621978237320754
      ],
      [
        -70.98878145217896,
        -34.62229607918354
      ],
      [
        -70.98884582519531,
        -34.62268455091821
      ],
      [
        -70.98888874053955,
        -34.62302004777106
      ],
      [
        -70.98891019821167,
        -34.623514461713455
      ],
      [
        -70.98891019821167,
        -34.62383229769234
      ],
      [
        -70.98901748657227,
        -34.624432651219834
      ],
      [
        -70.98903894424438,
        -34.62473282635477
      ],
      [
        -70.98914623260498,
        -34.62540380214167
      ],
      [
        -70.98914623260498,
        -34.62554505951071
      ],
      [
        -70.9891891479492,
        -34.626286656752846
      ],
      [
        -70.98925352096558,
        -34.62672808053583
      ],
      [
        -70.98948955535889,
        -34.627663891189016
      ],
      [
        -70.98953247070311,
        -34.62787577138091
      ],
      [
        -70.9898543357849,
        -34.628952820656835
      ],
      [
        -70.98974704742432,
        -34.6296590748868
      ],
      [
        -70.98981142044067,
        -34.63034766697238
      ],
      [
        -70.9898328781128,
        -34.63096562936251
      ],
      [
        -70.98991870880127,
        -34.63145999596032
      ],
      [
        -70.98989725112915,
        -34.63179545733102
      ],
      [
        -70.99000453948975,
        -34.63228981898367
      ],
      [
        -70.99011182785034,
        -34.632801833303844
      ],
      [
        -70.98998308181763,
        -34.6331902558524
      ],
      [
        -70.99011182785034,
        -34.63366695376713
      ],
      [
        -70.99011182785034,
        -34.634002406213106
      ],
      [
        -70.99015474319458,
        -34.63446144420398
      ],
      [
        -70.9902834892273,
        -34.63495578996861
      ],
      [
        -70.99024057388306,
        -34.635432477737105
      ],
      [
        -70.9902834892273,
        -34.635767923043105
      ],
      [
        -70.99036931991577,
        -34.636138676802986
      ],
      [
        -70.99058389663696,
        -34.63702141717994
      ],
      [
        -70.99058389663696,
        -34.63746278384531
      ],
      [
        -70.99049806594849,
        -34.63786883910302
      ],
      [
        -70.99054098129272,
        -34.63834551012975
      ],
      [
        -70.99066972732544,
        -34.63871625236759
      ],
      [
        -70.99081993103027,
        -34.63938711506134
      ],
      [
        -70.99084138870238,
        -34.63977550677211
      ],
      [
        -70.99077701568604,
        -34.640234512812505
      ],
      [
        -70.99079847335815,
        -34.6407111702424
      ],
      [
        -70.9910774230957,
        -34.64125844020924
      ],
      [
        -70.99090576171875,
        -34.64180570656444
      ],
      [
        -70.99094867706299,
        -34.642264701367836
      ],
      [
        -70.99112033843994,
        -34.64284726803655
      ],
      [
        -70.99114179611206,
        -34.643288603697194
      ],
      [
        -70.99122762680054,
        -34.643835856654164
      ],
      [
        -70.99120616912842,
        -34.64427718705317
      ],
      [
        -70.99133491516113,
        -34.644647902773045
      ],
      [
        -70.99135637283325,
        -34.64517749378342
      ],
      [
        -70.99131345748901,
        -34.645424635097335
      ],
      [
        -70.99131345748901,
        -34.64588360986882
      ],
      [
        -70.99135637283325,
        -34.646360234826965
      ],
      [
        -70.99146366119385,
        -34.647048688262714
      ],
      [
        -70.99154949188232,
        -34.64750765404395
      ],
      [
        -70.99161386489868,
        -34.648054879154785
      ],
      [
        -70.99172115325928,
        -34.648443230268015
      ],
      [
        -70.99182844161986,
        -34.64909636212872
      ],
      [
        -70.99178552627563,
        -34.64976714084586
      ],
      [
        -70.99200010299683,
        -34.65022609157779
      ],
      [
        -70.99200010299683,
        -34.65079095052906
      ],
      [
        -70.99195718765259,
        -34.651426412248625
      ],
      [
        -70.99200010299683,
        -34.65192065688492
      ],
      [
        -70.99204301834106,
        -34.6523619442486
      ],
      [
        -70.99212884902954,
        -34.65297974261105
      ],
      [
        -70.99217176437377,
        -34.65342102433658
      ],
      [
        -70.99223613739014,
        -34.65393290819504
      ],
      [
        -70.99227905273438,
        -34.65439183586334
      ],
      [
        -70.99234342575073,
        -34.654709553529806
      ],
      [
        -70.99242925643921,
        -34.655221429430796
      ],
      [
        -70.99247217178345,
        -34.655609746971066
      ],
      [
        -70.99262237548828,
        -34.656280472982736
      ],
      [
        -70.992751121521,
        -34.65670408661451
      ],
      [
        -70.99283695220947,
        -34.65733950300247
      ],
      [
        -70.99283695220947,
        -34.65785136266103
      ],
      [
        -70.99287986755371,
        -34.65834556898684
      ],
      [
        -70.99292278289795,
        -34.65871622179715
      ],
      [
        -70.99290132522583,
        -34.65943987250619
      ],
      [
        -70.99303007125854,
        -34.659704621186776
      ],
      [
        -70.9930944442749,
        -34.660481212437126
      ],
      [
        -70.99313735961913,
        -34.66086950533317
      ],
      [
        -70.99328756332397,
        -34.66146959077558
      ],
      [
        -70.99333047866821,
        -34.66178728130932
      ],
      [
        -70.99356651306152,
        -34.662440308025865
      ],
      [
        -70.99395275115967,
        -34.66305803126433
      ],
      [
        -70.9942102432251,
        -34.66342866299695
      ],
      [
        -70.99463939666748,
        -34.66394048504507
      ],
      [
        -70.99509000778198,
        -34.66434641062826
      ],
      [
        -70.99526166915894,
        -34.66452289939197
      ],
      [
        -70.99571228027344,
        -34.664981768418215
      ],
      [
        -70.99603414535522,
        -34.66538768889995
      ],
      [
        -70.99627017974854,
        -34.66568771580391
      ],
      [
        -70.99652767181396,
        -34.6660583357735
      ],
      [
        -70.9966778755188,
        -34.6662701178689
      ],
      [
        -70.99717140197754,
        -34.66685251583985
      ],
      [
        -70.9974718093872,
        -34.66739961323468
      ],
      [
        -70.99781513214111,
        -34.66777022554623
      ],
      [
        -70.9980297088623,
        -34.6680525957184
      ],
      [
        -70.99828720092773,
        -34.66844085313367
      ],
      [
        -70.9988021850586,
        -34.66904088374179
      ],
      [
        -70.99920988082886,
        -34.669446784335825
      ],
      [
        -70.99951028823853,
        -34.66999386459839
      ],
      [
        -70.99957466125488,
        -34.67008210301205
      ],
      [
        -71.00006818771362,
        -34.6708762445054
      ],
      [
        -71.00013256072998,
        -34.6710527193589
      ],
      [
        -71.00079774856567,
        -34.67195273526356
      ],
      [
        -71.00118398666382,
        -34.67235862158969
      ],
      [
        -71.00152730941772,
        -34.672782153026866
      ],
      [
        -71.00199937820435,
        -34.67336450521695
      ],
      [
        -71.00232124328613,
        -34.67364685632011
      ],
      [
        -71.00264310836792,
        -34.67410567480991
      ],
      [
        -71.00281476974487,
        -34.67444096363744
      ],
      [
        -71.00313663482666,
        -34.674811544446605
      ],
      [
        -71.00335121154784,
        -34.67502330416453
      ],
      [
        -71.00386619567871,
        -34.67564093358268
      ],
      [
        -71.00459575653076,
        -34.67684088614211
      ],
      [
        -71.00511074066162,
        -34.677546732467334
      ],
      [
        -71.00592613220215,
        -34.67846432369619
      ],
      [
        -71.00644111633301,
        -34.6790995732064
      ],
      [
        -71.00708484649658,
        -34.679981856108654
      ],
      [
        -71.00742816925049,
        -34.68054651223282
      ],
      [
        -71.00807189941406,
        -34.681499360711264
      ],
      [
        -71.00850105285645,
        -34.68220516732984
      ],
      [
        -71.00888729095459,
        -34.68298154766138
      ],
      [
        -71.00935935974121,
        -34.68344031443542
      ],
      [
        -71.00974559783936,
        -34.68396965755455
      ],
      [
        -71.01038932800293,
        -34.68464015398042
      ],
      [
        -71.01086139678955,
        -34.68520477833799
      ],
      [
        -71.01111888885498,
        -34.685734110176064
      ],
      [
        -71.01193428039551,
        -34.686616322385355
      ],
      [
        -71.01244926452637,
        -34.68756910101205
      ],
      [
        -71.01339340209961,
        -34.688557156153685
      ],
      [
        -71.01399421691895,
        -34.68933347692035
      ],
      [
        -71.01463794708252,
        -34.6901450772102
      ],
      [
        -71.01545333862305,
        -34.69102724241277
      ],
      [
        -71.01656913757324,
        -34.69265040182078
      ],
      [
        -71.01755619049072,
        -34.694132389133
      ],
      [
        -71.0181999206543,
        -34.694908657610874
      ],
      [
        -71.01901531219482,
        -34.69621418363098
      ],
      [
        -71.01957321166992,
        -34.6969198647967
      ],
      [
        -71.02038860321045,
        -34.69780195779168
      ],
      [
        -71.02068901062012,
        -34.69829592576186
      ],
      [
        -71.02171897888184,
        -34.69949554998485
      ],
      [
        -71.02249145507812,
        -34.70094213253482
      ],
      [
        -71.02352142333984,
        -34.70200059154888
      ],
      [
        -71.02429389953613,
        -34.702917911741764
      ],
      [
        -71.02476596832275,
        -34.703623535738664
      ],
      [
        -71.02558135986328,
        -34.70485836325225
      ],
      [
        -71.02613925933838,
        -34.70538756940178
      ],
      [
        -71.026611328125,
        -34.70630485204168
      ],
      [
        -71.0269546508789,
        -34.70701044715139
      ],
      [
        -71.02777004241943,
        -34.70817466592478
      ],
      [
        -71.02798461914062,
        -34.7087744085953
      ],
      [
        -71.02815628051758,
        -34.70983276740631
      ],
      [
        -71.02871417999268,
        -34.71057361051669
      ],
      [
        -71.02910041809082,
        -34.711561391008594
      ],
      [
        -71.0296583175659,
        -34.71325470154942
      ],
      [
        -71.02978706359863,
        -34.71381913069231
      ],
      [
        -71.03017330169678,
        -34.71463049083654
      ],
      [
        -71.03055953979492,
        -34.7153712909729
      ],
      [
        -71.03081703186035,
        -34.7163237385403
      ],
      [
        -71.03137493133545,
        -34.716852871337736
      ],
      [
        -71.03171825408936,
        -34.71738200074943
      ],
      [
        -71.03214740753174,
        -34.71833442515832
      ],
      [
        -71.03240489959717,
        -34.71893409415818
      ],
      [
        -71.03296279907227,
        -34.7203450628852
      ],
      [
        -71.03347778320312,
        -34.72172073421192
      ],
      [
        -71.03394985198975,
        -34.722249832473636
      ],
      [
        -71.03455066680908,
        -34.723166928106245
      ],
      [
        -71.0350227355957,
        -34.7239781965319
      ],
      [
        -71.03528022766113,
        -34.725106904576485
      ],
      [
        -71.0359239578247,
        -34.726376682706174
      ],
      [
        -71.0364818572998,
        -34.72778752441924
      ],
      [
        -71.03691101074219,
        -34.728880910184465
      ],
      [
        -71.03716850280762,
        -34.729551042698226
      ],
      [
        -71.03742599487305,
        -34.73071494415105
      ],
      [
        -71.03772640228271,
        -34.73166721496703
      ],
      [
        -71.03828430175781,
        -34.73269001214082
      ],
      [
        -71.03858470916748,
        -34.73346591879463
      ],
      [
        -71.03901386260986,
        -34.734277086143805
      ],
      [
        -71.03940010070801,
        -34.73477083628418
      ],
      [
        -71.03952884674072,
        -34.73593466422845
      ],
      [
        -71.03978633880615,
        -34.73671054041847
      ],
      [
        -71.04030132293701,
        -34.73766274214954
      ],
      [
        -71.0405158996582,
        -34.73829753720759
      ],
      [
        -71.04081630706786,
        -34.73939078393112
      ],
      [
        -71.04090213775635,
        -34.73988450351644
      ],
      [
        -71.04098796844482,
        -34.740695607859
      ],
      [
        -71.04128837585449,
        -34.741577233982454
      ],
      [
        -71.04124546051025,
        -34.74259990849947
      ],
      [
        -71.04115962982176,
        -34.743587306365804
      ],
      [
        -71.04111671447754,
        -34.74471574661926
      ],
      [
        -71.04115962982176,
        -34.7453504874879
      ],
      [
        -71.04098796844482,
        -34.74644364088413
      ],
      [
        -71.04094505310059,
        -34.74774835341964
      ],
      [
        -71.04094505310059,
        -34.748911998564125
      ],
      [
        -71.04115962982176,
        -34.75039297776508
      ],
      [
        -71.04128837585449,
        -34.750886631597446
      ],
      [
        -71.04150295257568,
        -34.752120753269125
      ],
      [
        -71.04150295257568,
        -34.752720177141214
      ],
      [
        -71.04171752929688,
        -34.75423634751451
      ],
      [
        -71.04180335998534,
        -34.75455368197673
      ],
      [
        -71.04150295257568,
        -34.75571723123829
      ],
      [
        -71.04184627532959,
        -34.756633955472644
      ],
      [
        -71.0419750213623,
        -34.757198088404344
      ],
      [
        -71.04227542877197,
        -34.75871417656004
      ],
      [
        -71.04231834411621,
        -34.76005395222415
      ],
      [
        -71.04240417480469,
        -34.761499475267584
      ],
      [
        -71.04223251342773,
        -34.762204599275044
      ],
      [
        -71.04188919067383,
        -34.763297529584264
      ],
      [
        -71.0414171218872,
        -34.76509554473796
      ],
      [
        -71.04111671447754,
        -34.76590640150341
      ],
      [
        -71.0407304763794,
        -34.76643521684169
      ],
      [
        -71.04017257690428,
        -34.76770435983074
      ],
      [
        -71.03957176208496,
        -34.7687619640811
      ],
      [
        -71.0390567779541,
        -34.76978430197436
      ],
      [
        -71.0388422012329,
        -34.77055986020438
      ],
      [
        -71.038498878479,
        -34.77119440242613
      ],
      [
        -71.03841304779053,
        -34.772357717160965
      ],
      [
        -71.03879928588867,
        -34.773556266705626
      ],
      [
        -71.03909969329834,
        -34.77440229119733
      ],
      [
        -71.03922843933105,
        -34.77496630270625
      ],
      [
        -71.03948593139648,
        -34.775741812236255
      ],
      [
        -71.03957176208496,
        -34.77665831410195
      ],
      [
        -71.0399580001831,
        -34.77743380772922
      ],
      [
        -71.04008674621582,
        -34.778174044846686
      ],
      [
        -71.04017257690428,
        -34.778984773116996
      ],
      [
        -71.04034423828125,
        -34.77972499631913
      ],
      [
        -71.04055881500244,
        -34.78071195025739
      ],
      [
        -71.04085922241211,
        -34.781064430945335
      ],
      [
        -71.04111671447754,
        -34.78198087368567
      ],
      [
        -71.04128837585449,
        -34.78268582271192
      ],
      [
        -71.04133129119873,
        -34.7833907657139
      ],
      [
        -71.04146003723145,
        -34.78391946901191
      ],
      [
        -71.04154586791992,
        -34.78462440147126
      ],
      [
        -71.04154586791992,
        -34.785082604339244
      ],
      [
        -71.04227542877197,
        -34.785294081727514
      ],
      [
        -71.04313373565672,
        -34.78511785060828
      ],
      [
        -71.0439920425415,
        -34.784976865441784
      ],
      [
        -71.04450702667236,
        -34.7849416191125
      ],
      [
        -71.04519367218018,
        -34.784871126408774
      ],
      [
        -71.04553699493408,
        -34.78490637276817
      ],
      [
        -71.04562282562256,
        -34.78550555857359
      ],
      [
        -71.0456657409668,
        -34.785752280875386
      ],
      [
        -71.04588031768799,
        -34.78656293467084
      ],
      [
        -71.04596614837646,
        -34.78730308987352
      ],
      [
        -71.0460090637207,
        -34.78772603272143
      ],
      [
        -71.04613780975342,
        -34.78843093264819
      ],
      [
        -71.04618072509766,
        -34.788853869712376
      ],
      [
        -71.0462236404419,
        -34.78952351562829
      ],
      [
        -71.04626655578613,
        -34.789981691279955
      ],
      [
        -71.04648113250732,
        -34.79043986438611
      ],
      [
        -71.04652404785156,
        -34.790757059660756
      ]
    ]
  }
}